Practica 4 Arquitectura/simulation/qsim/interr_trans.msim.vcd
$comment
	File created using the following command:
		vcd file interr_trans.msim.vcd -direction
$end
$date
	Thu Oct 26 15:26:27 2017
$end
$version
	ModelSim Version 10.5b
$end
$timescale
	1ps
$end

$scope module secuen_completo_vhd_vec_tst $end
$var wire 1 ! A $end
$var wire 1 " B $end
$var wire 1 # CLK $end
$var wire 1 $ est_pres [3] $end
$var wire 1 % est_pres [2] $end
$var wire 1 & est_pres [1] $end
$var wire 1 ' est_pres [0] $end
$var wire 1 ( RESET $end
$var wire 1 ) SALIDAS [3] $end
$var wire 1 * SALIDAS [2] $end
$var wire 1 + SALIDAS [1] $end
$var wire 1 , SALIDAS [0] $end
$var wire 1 - sensa_boton $end
$var wire 1 . X $end
$var wire 1 / Y $end

$scope module i1 $end
$var wire 1 0 gnd $end
$var wire 1 1 vcc $end
$var wire 1 2 unknown $end
$var wire 1 3 devoe $end
$var wire 1 4 devclrn $end
$var wire 1 5 devpor $end
$var wire 1 6 ww_devoe $end
$var wire 1 7 ww_devclrn $end
$var wire 1 8 ww_devpor $end
$var wire 1 9 ww_est_pres [3] $end
$var wire 1 : ww_est_pres [2] $end
$var wire 1 ; ww_est_pres [1] $end
$var wire 1 < ww_est_pres [0] $end
$var wire 1 = ww_X $end
$var wire 1 > ww_Y $end
$var wire 1 ? ww_sensa_boton $end
$var wire 1 @ ww_CLK $end
$var wire 1 A ww_RESET $end
$var wire 1 B ww_B $end
$var wire 1 C ww_A $end
$var wire 1 D ww_SALIDAS [3] $end
$var wire 1 E ww_SALIDAS [2] $end
$var wire 1 F ww_SALIDAS [1] $end
$var wire 1 G ww_SALIDAS [0] $end
$var wire 1 H \inst17|reloj~clkctrl_INCLK_bus\ [3] $end
$var wire 1 I \inst17|reloj~clkctrl_INCLK_bus\ [2] $end
$var wire 1 J \inst17|reloj~clkctrl_INCLK_bus\ [1] $end
$var wire 1 K \inst17|reloj~clkctrl_INCLK_bus\ [0] $end
$var wire 1 L \CLK~inputclkctrl_INCLK_bus\ [3] $end
$var wire 1 M \CLK~inputclkctrl_INCLK_bus\ [2] $end
$var wire 1 N \CLK~inputclkctrl_INCLK_bus\ [1] $end
$var wire 1 O \CLK~inputclkctrl_INCLK_bus\ [0] $end
$var wire 1 P \est_pres[3]~output_o\ $end
$var wire 1 Q \est_pres[2]~output_o\ $end
$var wire 1 R \est_pres[1]~output_o\ $end
$var wire 1 S \est_pres[0]~output_o\ $end
$var wire 1 T \SALIDAS[3]~output_o\ $end
$var wire 1 U \SALIDAS[2]~output_o\ $end
$var wire 1 V \SALIDAS[1]~output_o\ $end
$var wire 1 W \SALIDAS[0]~output_o\ $end
$var wire 1 X \CLK~input_o\ $end
$var wire 1 Y \CLK~inputclkctrl_outclk\ $end
$var wire 1 Z \sensa_boton~input_o\ $end
$var wire 1 [ \inst17|esiguiente~feeder_combout\ $end
$var wire 1 \ \inst17|esiguiente~q\ $end
$var wire 1 ] \inst17|reloj~0_combout\ $end
$var wire 1 ^ \inst17|reloj~q\ $end
$var wire 1 _ \inst17|reloj~clkctrl_outclk\ $end
$var wire 1 ` \B~input_o\ $end
$var wire 1 a \A~input_o\ $end
$var wire 1 b \RESET~input_o\ $end
$var wire 1 c \inst1|process_0~0_combout\ $end
$var wire 1 d \inst5|valor[0]~0_combout\ $end
$var wire 1 e \inst3|valor_interno[2]~0_combout\ $end
$var wire 1 f \inst8|Equal0~1_combout\ $end
$var wire 1 g \inst8|Equal0~2_combout\ $end
$var wire 1 h \inst8|Equal0~3_combout\ $end
$var wire 1 i \inst8|palabra[12]~7_combout\ $end
$var wire 1 j \inst8|Equal0~0_combout\ $end
$var wire 1 k \inst8|palabra[12]~5_combout\ $end
$var wire 1 l \inst8|comb~23_combout\ $end
$var wire 1 m \inst3|valor_interno[1]~feeder_combout\ $end
$var wire 1 n \inst2|Add0~2_combout\ $end
$var wire 1 o \inst6|Y[1]~6_combout\ $end
$var wire 1 p \inst6|Y[1]~7_combout\ $end
$var wire 1 q \inst8|Equal0~4_combout\ $end
$var wire 1 r \inst8|palabra[6]~19_combout\ $end
$var wire 1 s \inst8|palabra[6]~20_combout\ $end
$var wire 1 t \inst8|palabra[12]~6_combout\ $end
$var wire 1 u \inst8|comb~17_combout\ $end
$var wire 1 v \inst8|comb~16_combout\ $end
$var wire 1 w \inst13|valor~q\ $end
$var wire 1 x \X~input_o\ $end
$var wire 1 y \Y~input_o\ $end
$var wire 1 z \inst8|palabra[5]~21_combout\ $end
$var wire 1 { \inst8|palabra[5]~26_combout\ $end
$var wire 1 | \inst8|palabra[8]~17_combout\ $end
$var wire 1 } \inst8|palabra[5]~22_combout\ $end
$var wire 1 ~ \inst8|palabra[12]~25_combout\ $end
$var wire 1 !! \inst8|comb~19_combout\ $end
$var wire 1 "! \inst8|comb~18_combout\ $end
$var wire 1 #! \inst14|salida_mux~0_combout\ $end
$var wire 1 $! \inst6|Y[2]~3_combout\ $end
$var wire 1 %! \inst8|palabra[9]~24_combout\ $end
$var wire 1 &! \inst8|palabra[9]~23_combout\ $end
$var wire 1 '! \inst8|palabra[12]~14_combout\ $end
$var wire 1 (! \inst8|comb~21_combout\ $end
$var wire 1 )! \inst8|comb~22_combout\ $end
$var wire 1 *! \inst6|Y[0]~8_combout\ $end
$var wire 1 +! \inst6|Y[0]~9_combout\ $end
$var wire 1 ,! \inst8|Equal0~6_combout\ $end
$var wire 1 -! \inst8|Equal0~5_combout\ $end
$var wire 1 .! \inst8|palabra[8]~18_combout\ $end
$var wire 1 /! \inst8|comb~15_combout\ $end
$var wire 1 0! \inst8|comb~14_combout\ $end
$var wire 1 1! \inst6|Y[2]~2_combout\ $end
$var wire 1 2! \inst2|Add0~1_combout\ $end
$var wire 1 3! \inst8|comb~20_combout\ $end
$var wire 1 4! \inst6|Y[2]~4_combout\ $end
$var wire 1 5! \inst6|Y[2]~5_combout\ $end
$var wire 1 6! \inst8|palabra[2]~9_combout\ $end
$var wire 1 7! \inst8|palabra[7]~15_combout\ $end
$var wire 1 8! \inst8|palabra[7]~16_combout\ $end
$var wire 1 9! \inst8|comb~13_combout\ $end
$var wire 1 :! \inst8|comb~12_combout\ $end
$var wire 1 ;! \inst8|comb~10_combout\ $end
$var wire 1 <! \inst8|comb~11_combout\ $end
$var wire 1 =! \inst6|Y[3]~0_combout\ $end
$var wire 1 >! \inst2|Add0~0_combout\ $end
$var wire 1 ?! \inst7|palabra[3]~0_combout\ $end
$var wire 1 @! \inst6|Y[3]~1_combout\ $end
$var wire 1 A! \inst8|palabra[3]~4_combout\ $end
$var wire 1 B! \inst8|comb~3_combout\ $end
$var wire 1 C! \inst8|comb~2_combout\ $end
$var wire 1 D! \inst8|palabra[2]~8_combout\ $end
$var wire 1 E! \inst8|palabra[2]~10_combout\ $end
$var wire 1 F! \inst8|comb~5_combout\ $end
$var wire 1 G! \inst8|comb~4_combout\ $end
$var wire 1 H! \inst8|palabra[1]~11_combout\ $end
$var wire 1 I! \inst8|palabra[1]~12_combout\ $end
$var wire 1 J! \inst8|comb~7_combout\ $end
$var wire 1 K! \inst8|comb~6_combout\ $end
$var wire 1 L! \inst8|palabra[0]~13_combout\ $end
$var wire 1 M! \inst8|comb~9_combout\ $end
$var wire 1 N! \inst8|comb~8_combout\ $end
$var wire 1 O! \inst5|valor\ [3] $end
$var wire 1 P! \inst5|valor\ [2] $end
$var wire 1 Q! \inst5|valor\ [1] $end
$var wire 1 R! \inst5|valor\ [0] $end
$var wire 1 S! \inst3|valor_interno\ [3] $end
$var wire 1 T! \inst3|valor_interno\ [2] $end
$var wire 1 U! \inst3|valor_interno\ [1] $end
$var wire 1 V! \inst3|valor_interno\ [0] $end
$var wire 1 W! \inst10|valor_interno\ [3] $end
$var wire 1 X! \inst10|valor_interno\ [2] $end
$var wire 1 Y! \inst10|valor_interno\ [1] $end
$var wire 1 Z! \inst10|valor_interno\ [0] $end
$var wire 1 [! \inst9|valor\ [1] $end
$var wire 1 \! \inst9|valor\ [0] $end
$var wire 1 ]! \inst12|valor\ [1] $end
$var wire 1 ^! \inst12|valor\ [0] $end
$var wire 1 _! \inst4|valor_interno\ [3] $end
$var wire 1 `! \inst4|valor_interno\ [2] $end
$var wire 1 a! \inst4|valor_interno\ [1] $end
$var wire 1 b! \inst4|valor_interno\ [0] $end
$var wire 1 c! \inst|dir_out\ [3] $end
$var wire 1 d! \inst|dir_out\ [2] $end
$var wire 1 e! \inst|dir_out\ [1] $end
$var wire 1 f! \inst|dir_out\ [0] $end
$var wire 1 g! \inst8|palabra\ [12] $end
$var wire 1 h! \inst8|palabra\ [11] $end
$var wire 1 i! \inst8|palabra\ [10] $end
$var wire 1 j! \inst8|palabra\ [9] $end
$var wire 1 k! \inst8|palabra\ [8] $end
$var wire 1 l! \inst8|palabra\ [7] $end
$var wire 1 m! \inst8|palabra\ [6] $end
$var wire 1 n! \inst8|palabra\ [5] $end
$var wire 1 o! \inst8|palabra\ [4] $end
$var wire 1 p! \inst8|palabra\ [3] $end
$var wire 1 q! \inst8|palabra\ [2] $end
$var wire 1 r! \inst8|palabra\ [1] $end
$var wire 1 s! \inst8|palabra\ [0] $end
$upscope $end
$upscope $end
$enddefinitions $end
#0
$dumpvars
0!
0"
0#
1(
0-
1.
0/
00
11
x2
13
14
15
16
17
18
1=
0>
0?
0@
1A
0B
0C
0P
0Q
0R
0S
1T
1U
0V
0W
0X
0Y
0Z
0[
0\
0]
0^
0_
0`
0a
1b
1c
1d
1e
0f
0g
0h
1i
0j
0k
1l
1m
0n
0o
0p
0q
0r
0s
0t
0u
1v
0w
1x
0y
0z
0{
0|
0}
1~
0!!
1"!
0#!
0$!
0%!
0&!
0'!
1(!
0)!
0*!
0+!
1,!
0-!
0.!
0/!
10!
01!
02!
13!
04!
05!
06!
07!
08!
09!
1:!
1;!
0<!
0=!
0>!
0?!
0@!
0A!
1B!
0C!
1D!
1E!
1F!
0G!
0H!
0I!
0J!
1K!
0L!
0M!
1N!
09
0:
0;
0<
1D
1E
0F
0G
0O!
0P!
0Q!
0R!
xS!
0T!
0U!
0V!
0W!
0X!
0Y!
0Z!
0[!
0\!
0]!
0^!
x_!
0`!
xa!
0b!
xc!
0d!
xe!
xf!
0g!
0h!
0i!
0j!
0k!
0l!
0m!
0n!
0o!
1p!
1q!
0r!
0s!
1L
1M
1N
0O
1H
1I
1J
0K
0$
0%
0&
0'
1)
1*
0+
0,
$end
#5000
1#
1@
1X
1O
1Y
#10000
0#
0@
0X
0O
0Y
#15000
1#
1@
1X
1O
1Y
#20000
0#
0@
0X
0O
0Y
#25000
1#
1-
1@
1?
1Z
1X
1O
1[
1Y
1\
#30000
0#
0@
0X
0O
0Y
#35000
1#
1@
1X
1O
1Y
#40000
0#
0@
0X
0O
0Y
#45000
1#
1@
1X
1O
1Y
#50000
0#
0-
0@
0?
0Z
0X
0O
0[
1]
0Y
#55000
1#
1@
1X
1O
1Y
0\
1^
1K
0]
1_
1b!
1R!
1T!
1U!
1*!
1+!
0d
0i
1j
1n
1z
1{
0,!
1A!
1H!
1I!
1t
0v
03!
0:!
0;!
0B!
0F!
0K!
0N!
1S
1v
13!
1:!
1;!
1C!
1F!
1N!
1J!
1<
1'
1r!
0p!
0T
1V
0D
1F
1+
0)
#60000
0#
0@
0X
0O
0Y
#65000
1#
1@
1X
1O
1Y
0^
0K
0_
#70000
0#
0@
0X
0O
0Y
#75000
1#
1-
1@
1?
1Z
1X
1O
1[
1Y
1\
#80000
0#
0@
0X
0O
0Y
#85000
1#
1@
1X
1O
1Y
#90000
0#
0@
0X
0O
0Y
#95000
1#
1@
1X
1O
1Y
#100000
0#
0-
0@
0?
0Z
0X
0O
0[
1]
0Y
#105000
1#
1@
1X
1O
1Y
0\
1^
1K
0]
1_
0R!
1Q!
1o
0*!
0+!
1p
1d
1i
0j
1-!
0D!
0H!
1L!
0I!
0E!
1.!
0t
1M!
0N!
1R
0S
1s!
1/!
00!
0F!
1G!
0J!
1K!
1;
0<
0'
1&
0r!
0q!
1k!
1W
1G
0U
0V
1,
0E
0F
0+
0*
#110000
0#
0@
0X
0O
0Y
#115000
1#
1@
1X
1O
1Y
0^
0K
0_
#120000
0#
0@
0X
0O
0Y
#125000
1#
1-
1@
1?
1Z
1X
1O
1[
1Y
1\
#130000
0#
0@
0X
0O
0Y
#135000
1#
1@
1X
1O
1Y
#140000
0#
0@
0X
0O
0Y
#145000
1#
1@
1X
1O
1Y
#150000
0#
0-
0@
0?
0Z
0X
0O
0[
1]
0Y
#155000
1#
1@
1X
1O
1Y
0\
1^
1K
0]
1_
1R!
1[!
1$!
11!
1?!
1*!
1+!
15!
14!
05!
0d
0i
1k
0n
0z
0{
0-!
17!
1>!
18!
0.!
1t
0v
03!
0:!
0;!
0C!
0G!
0K!
0M!
1f
0k
1{
1&!
12!
0>!
1H!
0L!
1Q
1S
1I!
0(!
1)!
1}
0l
1v
13!
1;!
1C!
1G!
1K!
1N!
0/!
10!
19!
1:
1<
0Q
1'
1%
1l!
0k!
0s!
1i!
1!!
0"!
1j!
1J!
0K!
0:
0%
1r!
1n!
0W
0G
1V
0,
1F
1+
#160000
0#
0@
0X
0O
0Y
#165000
1#
1@
1X
1O
1Y
0^
0K
0_
#170000
0#
0@
0X
0O
0Y
#175000
1#
1-
1@
1?
1Z
1X
1O
1[
1Y
1\
#180000
0#
0@
0X
0O
0Y
#185000
1#
1@
1X
1O
1Y
#190000
0#
0@
0X
0O
0Y
#195000
1#
1@
1X
1O
1Y
#200000
0#
0-
0@
0?
0Z
0X
0O
0[
1]
0Y
#205000
1#
1@
1X
1O
1Y
0\
1^
1K
0]
1_
0R!
1Y!
0Q!
1^!
1Z!
0[!
1P!
1\!
01!
1#!
0$!
0?!
0o
04!
15!
0f
1k
0{
0&!
02!
1>!
0H!
1L!
05!
0p
0*!
14!
15!
0+!
1n
1j
0k
1z
1{
07!
0>!
1D!
1H!
0L!
1M!
0N!
0I!
1(!
0)!
0}
1l
1Q
0i!
0!!
1"!
0j!
0J!
1K!
1s!
0M!
1N!
1I!
1E!
08!
1d
1i
0n
0j
1r
0z
0{
1|
12!
17!
0A!
0D!
0H!
1:
0R
0Q
1%
0I!
0E!
18!
1.!
1}
1s
0t
1B!
0C!
09!
1:!
1F!
0G!
1J!
0K!
0s!
0r!
0n!
0;
0:
0S
1Q
0&
0%
1r!
1q!
0l!
1p!
1u
0v
1!!
0"!
1/!
00!
19!
0:!
0F!
1G!
0J!
1K!
0<
1:
1W
0'
1%
1k!
1n!
1o!
1m!
1l!
0q!
0r!
1G
0V
0W
1,
0F
0G
1T
1U
1V
0,
0+
1D
1E
1F
0V
0U
1+
1*
1)
0F
0E
0+
0*
#210000
0#
0@
0X
0O
0Y
#215000
1#
1@
1X
1O
1Y
0^
0K
0_
#220000
0#
0@
0X
0O
0Y
#225000
1#
1-
1@
1?
1Z
1X
1O
1[
1Y
1\
#230000
0#
0@
0X
0O
0Y
#235000
1#
1@
1X
1O
1Y
#240000
0#
0@
0X
0O
0Y
#245000
1#
1@
1X
1O
1Y
#250000
0#
0-
0@
0?
0Z
0X
0O
0[
1]
0Y
#255000
1#
1@
1X
1O
1Y
0\
1^
1K
0]
1_
1R!
0Y!
1w
1]!
0Z!
1[!
11!
1?!
1*!
1o
0*!
1+!
04!
05!
15!
0d
0i
1j
1n
0r
1z
1{
0|
02!
07!
1A!
1D!
1H!
0+!
1p
1d
1i
1I!
1E!
08!
0.!
0}
1t
0u
03!
09!
0;!
0B!
0G!
0K!
0N!
0j
0s
0z
0{
12!
0D!
1L!
0Q
1S
0E!
0t
0!!
1"!
0/!
10!
1v
13!
1:!
1;!
1C!
1F!
1J!
1M!
0:
1<
1R
0S
1Q
1'
0%
1s!
1r!
1q!
0p!
0l!
0o!
0m!
0k!
0n!
0F!
1G!
1;
0<
1:
0'
1&
1%
0q!
0T
1U
1V
1W
0D
1E
1F
1G
0U
1,
1+
1*
0)
0E
0*
#260000
0#
0@
0X
0O
0Y
#265000
1#
1@
1X
1O
1Y
0^
0K
0_
#270000
0#
0@
0X
0O
0Y
#275000
1#
1-
1@
1?
1Z
1X
1O
1[
1Y
1\
#280000
0#
0@
0X
0O
0Y
#285000
1#
1@
1X
1O
1Y
#290000
0#
0@
0X
0O
0Y
#295000
1#
1@
1X
1O
1Y
#300000
0#
0-
0@
0?
0Z
0X
0O
0[
1]
0Y
#305000
1#
1@
1X
1O
1Y
0\
1^
1K
0]
1_
1Q!
0w
0]!
0^!
0[!
0\!
0#!
01!
0?!
1*!
14!
05!
1z
1{
1-!
02!
0H!
15!
1+!
0d
0i
0n
1k
0z
0{
0-!
17!
1>!
0I!
1.!
0Q
1/!
00!
18!
0.!
1t
0v
03!
0:!
0;!
0C!
0G!
0J!
0M!
0:
1S
1Q
0%
1v
13!
1;!
1C!
1G!
1K!
1M!
0/!
10!
19!
1k!
1<
1:
1'
1%
1l!
0k!
0r!
0V
0F
0+
#310000
0#
0@
0X
0O
0Y
#315000
1#
1@
1X
1O
1Y
0^
0K
0_
#320000
0#
0@
0X
0O
0Y
#325000
1#
1-
1@
1?
1Z
1X
1O
1[
1Y
1\
#330000
0#
0@
0X
0O
0Y
#335000
1#
1@
1X
1O
1Y
#340000
0#
0@
0X
0O
0Y
#345000
1#
1@
1X
1O
1Y
#350000
0#
0-
0@
0?
0Z
0X
0O
0[
1]
0Y
#355000
1#
1@
1X
1O
1Y
0\
1^
1K
0]
1_
0R!
0Q!
0P!
1\!
1O!
1@!
1$!
1?!
04!
0o
0*!
0+!
05!
0@!
0p
0k
1&!
16!
07!
0>!
0L!
0M!
1N!
0;!
1<!
0(!
1)!
0l
0t
0~
1d
1i
0&!
1,!
06!
0A!
1D!
1P
08!
1E!
1l
1~
0"!
0)!
00!
1;!
0<!
1B!
0C!
1j!
1g!
0s!
19
0R
0P
0Q
0S
1$
1p!
0g!
1"!
1(!
10!
1F!
0G!
09!
1:!
0;
09
0:
0<
0'
0&
0%
0$
0l!
1q!
0j!
0W
0G
1T
0,
1D
1U
1)
1E
1*
#360000
0#
0@
0X
0O
0Y
#365000
1#
1@
1X
1O
1Y
0^
0K
0_
#370000
0#
0@
0X
0O
0Y
#375000
1#
1-
1@
1?
1Z
1X
1O
1[
1Y
1\
#380000
0#
0@
0X
0O
0Y
#385000
1#
1@
1X
1O
1Y
#390000
0#
0@
0X
0O
0Y
#395000
1#
1@
1X
1O
1Y
#400000
0#
0-
0@
0?
0Z
0X
0O
0[
1]
0Y
#405000
1#
1@
1X
1O
1Y
0\
1^
1K
0]
1_
1R!
0\!
0O!
0$!
0?!
1*!
1+!
0d
0i
1j
1n
1z
1{
0,!
1A!
1H!
1I!
1t
0v
03!
0:!
0;!
0B!
0F!
0K!
0N!
1S
1v
13!
1:!
1;!
1C!
1F!
1N!
1J!
1<
1'
1r!
0p!
0T
1V
0D
1F
1+
0)
#410000
0#
0@
0X
0O
0Y
#415000
1#
1@
1X
1O
1Y
0^
0K
0_
#420000
0#
0@
0X
0O
0Y
#425000
1#
1-
1@
1?
1Z
1X
1O
1[
1Y
1\
#430000
0#
0@
0X
0O
0Y
#435000
1#
1@
1X
1O
1Y
#440000
0#
0@
0X
0O
0Y
#445000
1#
1@
1X
1O
1Y
#450000
0#
0-
0@
0?
0Z
0X
0O
0[
1]
0Y
#455000
1#
1@
1X
1O
1Y
0\
1^
1K
0]
1_
0R!
1Q!
1o
0*!
0+!
1p
1d
1i
0j
1-!
0D!
0H!
1L!
0I!
0E!
1.!
0t
1M!
0N!
1R
0S
1s!
1/!
00!
0F!
1G!
0J!
1K!
1;
0<
0'
1&
0r!
0q!
1k!
1W
1G
0U
0V
1,
0E
0F
0+
0*
#460000
0#
0@
0X
0O
0Y
#465000
1#
1@
1X
1O
1Y
0^
0K
0_
#470000
0#
0@
0X
0O
0Y
#475000
1#
1-
1@
1?
1Z
1X
1O
1[
1Y
1\
#480000
0#
0@
0X
0O
0Y
#485000
1#
1@
1X
1O
1Y
#490000
0#
0@
0X
0O
0Y
#495000
1#
1@
1X
1O
1Y
#500000
0#
0-
0@
0?
0Z
0X
0O
0[
1]
0Y
#505000
1#
1@
1X
1O
1Y
0\
1^
1K
0]
1_
1R!
1[!
1$!
11!
1?!
1*!
1+!
15!
14!
05!
0d
0i
1k
0n
0z
0{
0-!
17!
1>!
18!
0.!
1t
0v
03!
0:!
0;!
0C!
0G!
0K!
0M!
1f
0k
1{
1&!
12!
0>!
1H!
0L!
1Q
1S
1I!
0(!
1)!
1}
0l
1v
13!
1;!
1C!
1G!
1K!
1N!
0/!
10!
19!
1:
1<
0Q
1'
1%
1l!
0k!
0s!
1i!
1!!
0"!
1j!
1J!
0K!
0:
0%
1r!
1n!
0W
0G
1V
0,
1F
1+
#510000
0#
0@
0X
0O
0Y
#515000
1#
1@
1X
1O
1Y
0^
0K
0_
#520000
0#
0@
0X
0O
0Y
#525000
1#
1-
1@
1?
1Z
1X
1O
1[
1Y
1\
#530000
0#
0@
0X
0O
0Y
#535000
1#
1@
1X
1O
1Y
#540000
0#
0@
0X
0O
0Y
#545000
1#
1@
1X
1O
1Y
#550000
0#
0-
0@
0?
0Z
0X
0O
0[
1]
0Y
#555000
1#
1@
1X
1O
1Y
0\
1^
1K
0]
1_
0R!
1Y!
0Q!
1^!
1Z!
0[!
1P!
1\!
01!
1#!
0$!
0?!
0o
04!
15!
0f
1k
0{
0&!
02!
1>!
0H!
1L!
05!
0p
0*!
14!
15!
0+!
1n
1j
0k
1z
1{
07!
0>!
1D!
1H!
0L!
1M!
0N!
0I!
1(!
0)!
0}
1l
1Q
0i!
0!!
1"!
0j!
0J!
1K!
1s!
0M!
1N!
1I!
1E!
08!
1d
1i
0n
0j
1r
0z
0{
1|
12!
17!
0A!
0D!
0H!
1:
0R
0Q
1%
0I!
0E!
18!
1.!
1}
1s
0t
1B!
0C!
09!
1:!
1F!
0G!
1J!
0K!
0s!
0r!
0n!
0;
0:
0S
1Q
0&
0%
1r!
1q!
0l!
1p!
1u
0v
1!!
0"!
1/!
00!
19!
0:!
0F!
1G!
0J!
1K!
0<
1:
1W
0'
1%
1k!
1n!
1o!
1m!
1l!
0q!
0r!
1G
0V
0W
1,
0F
0G
1T
1U
1V
0,
0+
1D
1E
1F
0V
0U
1+
1*
1)
0F
0E
0+
0*
#560000
0#
0@
0X
0O
0Y
#565000
1#
1@
1X
1O
1Y
0^
0K
0_
#570000
0#
0@
0X
0O
0Y
#575000
1#
1-
1@
1?
1Z
1X
1O
1[
1Y
1\
#580000
0#
0@
0X
0O
0Y
#585000
1#
1@
1X
1O
1Y
#590000
0#
0@
0X
0O
0Y
#595000
1#
1@
1X
1O
1Y
#600000
0#
0-
0@
0?
0Z
0X
0O
0[
1]
0Y
#605000
1#
1@
1X
1O
1Y
0\
1^
1K
0]
1_
1R!
0Y!
1w
1]!
0Z!
1[!
11!
1?!
1*!
1o
0*!
1+!
04!
05!
15!
0d
0i
1j
1n
0r
1z
1{
0|
02!
07!
1A!
1D!
1H!
0+!
1p
1d
1i
1I!
1E!
08!
0.!
0}
1t
0u
03!
09!
0;!
0B!
0G!
0K!
0N!
0j
0s
0z
0{
12!
0D!
1L!
0Q
1S
0E!
0t
0!!
1"!
0/!
10!
1v
13!
1:!
1;!
1C!
1F!
1J!
1M!
0:
1<
1R
0S
1Q
1'
0%
1s!
1r!
1q!
0p!
0l!
0o!
0m!
0k!
0n!
0F!
1G!
1;
0<
1:
0'
1&
1%
0q!
0T
1U
1V
1W
0D
1E
1F
1G
0U
1,
1+
1*
0)
0E
0*
#610000
0#
0@
0X
0O
0Y
#615000
1#
1@
1X
1O
1Y
0^
0K
0_
#620000
0#
0@
0X
0O
0Y
#625000
1#
1-
1@
1?
1Z
1X
1O
1[
1Y
1\
#630000
0#
0@
0X
0O
0Y
#635000
1#
1@
1X
1O
1Y
#640000
0#
0@
0X
0O
0Y
#645000
1#
1@
1X
1O
1Y
#650000
0#
0-
0@
0?
0Z
0X
0O
0[
1]
0Y
#655000
1#
1@
1X
1O
1Y
0\
1^
1K
0]
1_
1Q!
0w
0]!
0^!
0[!
0\!
0#!
01!
0?!
1*!
14!
05!
1z
1{
1-!
02!
0H!
15!
1+!
0d
0i
0n
1k
0z
0{
0-!
17!
1>!
0I!
1.!
0Q
1/!
00!
18!
0.!
1t
0v
03!
0:!
0;!
0C!
0G!
0J!
0M!
0:
1S
1Q
0%
1v
13!
1;!
1C!
1G!
1K!
1M!
0/!
10!
19!
1k!
1<
1:
1'
1%
1l!
0k!
0r!
0V
0F
0+
#660000
0#
0@
0X
0O
0Y
#665000
1#
1@
1X
1O
1Y
0^
0K
0_
#670000
0#
0@
0X
0O
0Y
#675000
1#
1-
1@
1?
1Z
1X
1O
1[
1Y
1\
#680000
0#
0@
0X
0O
0Y
#685000
1#
1@
1X
1O
1Y
#690000
0#
0@
0X
0O
0Y
#695000
1#
1@
1X
1O
1Y
#700000
0#
0-
0@
0?
0Z
0X
0O
0[
1]
0Y
#705000
1#
1@
1X
1O
1Y
0\
1^
1K
0]
1_
0R!
0Q!
0P!
1\!
1O!
1@!
1$!
1?!
04!
0o
0*!
0+!
05!
0@!
0p
0k
1&!
16!
07!
0>!
0L!
0M!
1N!
0;!
1<!
0(!
1)!
0l
0t
0~
1d
1i
0&!
1,!
06!
0A!
1D!
1P
08!
1E!
1l
1~
0"!
0)!
00!
1;!
0<!
1B!
0C!
1j!
1g!
0s!
19
0R
0P
0Q
0S
1$
1p!
0g!
1"!
1(!
10!
1F!
0G!
09!
1:!
0;
09
0:
0<
0'
0&
0%
0$
0l!
1q!
0j!
0W
0G
1T
0,
1D
1U
1)
1E
1*
#710000
0#
0@
0X
0O
0Y
#715000
1#
1@
1X
1O
1Y
0^
0K
0_
#720000
0#
0@
0X
0O
0Y
#725000
1#
1-
1@
1?
1Z
1X
1O
1[
1Y
1\
#730000
0#
0@
0X
0O
0Y
#735000
1#
1@
1X
1O
1Y
#740000
0#
0@
0X
0O
0Y
#745000
1#
1@
1X
1O
1Y
#750000
0#
0-
0@
0?
0Z
0X
0O
0[
1]
0Y
#755000
1#
1@
1X
1O
1Y
0\
1^
1K
0]
1_
1R!
0\!
0O!
0$!
0?!
1*!
1+!
0d
0i
1j
1n
1z
1{
0,!
1A!
1H!
1I!
1t
0v
03!
0:!
0;!
0B!
0F!
0K!
0N!
1S
1v
13!
1:!
1;!
1C!
1F!
1N!
1J!
1<
1'
1r!
0p!
0T
1V
0D
1F
1+
0)
#760000
0#
0@
0X
0O
0Y
#765000
1#
1@
1X
1O
1Y
0^
0K
0_
#770000
0#
0@
0X
0O
0Y
#775000
1#
1-
1@
1?
1Z
1X
1O
1[
1Y
1\
#780000
0#
0@
0X
0O
0Y
#785000
1#
1@
1X
1O
1Y
#790000
0#
0@
0X
0O
0Y
#795000
1#
1@
1X
1O
1Y
#800000
0#
0-
0@
0?
0Z
0X
0O
0[
1]
0Y
#805000
1#
1@
1X
1O
1Y
0\
1^
1K
0]
1_
0R!
1Q!
1o
0*!
0+!
1p
1d
1i
0j
1-!
0D!
0H!
1L!
0I!
0E!
1.!
0t
1M!
0N!
1R
0S
1s!
1/!
00!
0F!
1G!
0J!
1K!
1;
0<
0'
1&
0r!
0q!
1k!
1W
1G
0U
0V
1,
0E
0F
0+
0*
#810000
0#
0@
0X
0O
0Y
#815000
1#
1@
1X
1O
1Y
0^
0K
0_
#820000
0#
0@
0X
0O
0Y
#825000
1#
1-
1@
1?
1Z
1X
1O
1[
1Y
1\
#830000
0#
0@
0X
0O
0Y
#835000
1#
1@
1X
1O
1Y
#840000
0#
0@
0X
0O
0Y
#845000
1#
1@
1X
1O
1Y
#850000
0#
0-
0@
0?
0Z
0X
0O
0[
1]
0Y
#855000
1#
1@
1X
1O
1Y
0\
1^
1K
0]
1_
1R!
1[!
1$!
11!
1?!
1*!
1+!
15!
14!
05!
0d
0i
1k
0n
0z
0{
0-!
17!
1>!
18!
0.!
1t
0v
03!
0:!
0;!
0C!
0G!
0K!
0M!
1f
0k
1{
1&!
12!
0>!
1H!
0L!
1Q
1S
1I!
0(!
1)!
1}
0l
1v
13!
1;!
1C!
1G!
1K!
1N!
0/!
10!
19!
1:
1<
0Q
1'
1%
1l!
0k!
0s!
1i!
1!!
0"!
1j!
1J!
0K!
0:
0%
1r!
1n!
0W
0G
1V
0,
1F
1+
#860000
0#
0@
0X
0O
0Y
#865000
1#
1@
1X
1O
1Y
0^
0K
0_
#870000
0#
0@
0X
0O
0Y
#875000
1#
1-
1@
1?
1Z
1X
1O
1[
1Y
1\
#880000
0#
0@
0X
0O
0Y
#885000
1#
1@
1X
1O
1Y
#890000
0#
0@
0X
0O
0Y
#895000
1#
1@
1X
1O
1Y
#900000
0#
0-
0@
0?
0Z
0X
0O
0[
1]
0Y
